<?xml version="1.0" encoding="UTF-8" standalone="no"?>
<svg
   width="60"
   height="60"
   version="1.1"
   id="svg4"
   xmlns="http://www.w3.org/2000/svg"
   xmlns:svg="http://www.w3.org/2000/svg">
  <defs
     id="defs8" />
  <path
      class="shapebg-fill"
      d="M 47.309215,54.979652 H 12.893707 l 0.324674,-1.379867 q 6.696414,-1.420451 8.887968,-2.800318 3.28733,-2.069801 5.357131,-6.128233 2.110385,-4.058433 2.110385,-8.563293 0,-0.649349 -0.04059,-1.866879 -2.475644,5.032456 -6.047064,7.345763 -3.530837,2.313306 -7.22401,2.313306 -4.707782,0 -7.9951123,-3.28733 -3.2873304,-3.28733 -3.2873304,-8.076281 0,-4.707782 3.0032401,-7.913943 3.0032396,-3.246746 6.8181666,-3.246746 2.43506,0 6.615245,2.0698 -1.704541,-2.840903 -2.232138,-4.261354 -0.487012,-1.461036 -0.487012,-3.124993 0,-4.626613 3.206162,-7.8327749 3.206162,-3.2061617 7.995112,-3.2061617 4.788951,0 8.035697,3.2061617 3.28733,3.2061619 3.28733,7.6298529 0,3.612005 -2.800318,7.589269 3.409083,-1.623373 4.099017,-1.826294 1.095776,-0.324675 2.475643,-0.324675 4.058433,0 7.021089,3.206162 3.00324,3.165577 3.00324,7.873359 0,4.870119 -3.28733,8.198034 -3.246746,3.28733 -7.832775,3.28733 -2.556813,0 -5.275963,-1.21753 -2.678565,-1.258114 -4.667197,-3.327914 -1.420452,-1.50162 -3.530836,-5.073041 0.162337,6.452908 1.948047,10.22725 1.826295,3.733758 5.560053,6.209402 2.516228,1.663957 9.050304,2.922071 z"
      id="path7036" />
</svg>
