{
  "display-name": "Wordnik",
  "charset": "ABCDEFGHIJKLMNOPQRSTUVWXYZ",
  "filterchar": "?",
  "min-length": 2,
  "max-length": 21,
  "threshold": 50,
  "visibility": "editor",
  "letter-list-offset": 2563775,
  "letter-index-offset": 6104413,
  "enumerations-offset": 6140293,
  "anagram-word-list-offset": 6140294,
  "anagram-hash-index-offset": 6537022,
  "anagram-hash-index-length": 176655,
  "frequency-table-offset": 8126917,
  "words": [
		[2, 6, 0, 126],
		[3, 7, 756, 1344],
		[4, 8, 10164, 5595],
		[5, 9, 54924, 11846],
		[6, 10, 161538, 18195],
		[7, 11, 343488, 25388],
		[8, 12, 622756, 31593],
		[9, 13, 1001872, 30833],
		[10, 14, 1402701, 23485],
		[11, 15, 1731491, 16948],
		[12, 16, 1985711, 11981],
		[13, 17, 2177407, 8167],
		[14, 18, 2316246, 5329],
		[15, 19, 2412168, 3322],
		[16, 20, 2475286, 1940],
		[17, 21, 2514086, 1128],
		[18, 22, 2537774, 594],
		[19, 23, 2550842, 329],
		[20, 24, 2558409, 159],
		[21, 25, 2562225, 62]
	],
  "word-count": 198364

}
